{
  "new_entries": {
    "has_next": false,
    "page": 1,
    "results": []
  },
  "last_updated_data": "2024-04-29T16:15:51Z",
  "league": {
    "id": 20,
    "name": "Kongsvinger",
    "created": "2024-03-11T12:07:30.221631Z",
    "closed": false,
    "max_entries": null,
    "league_type": "s",
    "scoring": "c",
    "admin_entry": null,
    "start_event": 1,
    "code_privacy": "p",
    "has_cup": true,
    "cup_league": null,
    "rank": null
  },
  "standings": {
    "has_next": true,
    "page": 1,
    "results": [
      {
        "id": 196043,
        "event_total": 54,
        "player_name": "Jan Erik Teigum",
        "rank": 1,
        "last_rank": 3,
        "rank_sort": 1,
        "total": 332,
        "entry": 34096,
        "entry_name": "Viggernesians"
      },
      {
        "id": 14442,
        "event_total": 44,
        "player_name": "Lars Granlund",
        "rank": 2,
        "last_rank": 1,
        "rank_sort": 2,
        "total": 327,
        "entry": 3246,
        "entry_name": "Goonerne FK"
      },
      {
        "id": 21097,
        "event_total": 55,
        "player_name": "Audun S. Lien",
        "rank": 3,
        "last_rank": 6,
        "rank_sort": 3,
        "total": 323,
        "entry": 4678,
        "entry_name": "Grevlinga"
      },
      {
        "id": 97054,
        "event_total": 38,
        "player_name": "Karianne Melbye",
        "rank": 4,
        "last_rank": 2,
        "rank_sort": 4,
        "total": 317,
        "entry": 18051,
        "entry_name": "MelbyeFK"
      },
      {
        "id": 44968,
        "event_total": 52,
        "player_name": "Tommy 칒stby",
        "rank": 5,
        "last_rank": 9,
        "rank_sort": 5,
        "total": 314,
        "entry": 8986,
        "entry_name": "Parkere bussen"
      },
      {
        "id": 214253,
        "event_total": 45,
        "player_name": "Tom Br친ten",
        "rank": 6,
        "last_rank": 5,
        "rank_sort": 6,
        "total": 313,
        "entry": 37036,
        "entry_name": "Top flopp"
      },
      {
        "id": 5953,
        "event_total": 52,
        "player_name": "Bj칮rn Arve Sagbakken",
        "rank": 7,
        "last_rank": 13,
        "rank_sort": 7,
        "total": 312,
        "entry": 1327,
        "entry_name": "Syltelabber FK"
      },
      {
        "id": 15948,
        "event_total": 64,
        "player_name": "Kenneth S칝ter Eriksen游游",
        "rank": 8,
        "last_rank": 33,
        "rank_sort": 8,
        "total": 311,
        "entry": 3578,
        "entry_name": "L친nga Bollar"
      },
      {
        "id": 99814,
        "event_total": 49,
        "player_name": "Tom Haget",
        "rank": 9,
        "last_rank": 11,
        "rank_sort": 9,
        "total": 309,
        "entry": 18500,
        "entry_name": "Stan Bowles"
      },
      {
        "id": 251170,
        "event_total": 49,
        "player_name": "Martin Wien",
        "rank": 10,
        "last_rank": 14,
        "rank_sort": 10,
        "total": 308,
        "entry": 43120,
        "entry_name": "Avadakedavra"
      },
      {
        "id": 112560,
        "event_total": 43,
        "player_name": "Tone Holth",
        "rank": 10,
        "last_rank": 8,
        "rank_sort": 11,
        "total": 308,
        "entry": 20443,
        "entry_name": "BuaTone"
      },
      {
        "id": 165216,
        "event_total": 49,
        "player_name": "Noah Nielsen",
        "rank": 12,
        "last_rank": 15,
        "rank_sort": 12,
        "total": 308,
        "entry": 28980,
        "entry_name": "Noinators manskap"
      },
      {
        "id": 161905,
        "event_total": 58,
        "player_name": "Theodor Hestnes",
        "rank": 13,
        "last_rank": 37,
        "rank_sort": 13,
        "total": 305,
        "entry": 28435,
        "entry_name": "FRI"
      },
      {
        "id": 47085,
        "event_total": 30,
        "player_name": "Torgeir Broen",
        "rank": 14,
        "last_rank": 4,
        "rank_sort": 14,
        "total": 305,
        "entry": 9399,
        "entry_name": "Overtr친kk FC"
      },
      {
        "id": 54717,
        "event_total": 51,
        "player_name": "K친re-Johan Bj칮rgen",
        "rank": 15,
        "last_rank": 19,
        "rank_sort": 15,
        "total": 305,
        "entry": 10682,
        "entry_name": "Espabollers"
      },
      {
        "id": 13565,
        "event_total": 70,
        "player_name": "Stig-Are Melby",
        "rank": 16,
        "last_rank": 77,
        "rank_sort": 16,
        "total": 304,
        "entry": 3048,
        "entry_name": "Kafkakameratene"
      },
      {
        "id": 74193,
        "event_total": 51,
        "player_name": "IVAN WAIS",
        "rank": 17,
        "last_rank": 26,
        "rank_sort": 17,
        "total": 304,
        "entry": 14116,
        "entry_name": "Hok친sen"
      },
      {
        "id": 94984,
        "event_total": 56,
        "player_name": "Edress Sayedi",
        "rank": 18,
        "last_rank": 41,
        "rank_sort": 18,
        "total": 302,
        "entry": 17726,
        "entry_name": "esa98845"
      },
      {
        "id": 205013,
        "event_total": 40,
        "player_name": "Kent M칮rch",
        "rank": 19,
        "last_rank": 7,
        "rank_sort": 19,
        "total": 302,
        "entry": 35534,
        "entry_name": "Les Deux"
      },
      {
        "id": 197942,
        "event_total": 40,
        "player_name": "Marcus Buringrud",
        "rank": 20,
        "last_rank": 11,
        "rank_sort": 20,
        "total": 300,
        "entry": 34391,
        "entry_name": "OldTractors FC"
      },
      {
        "id": 23328,
        "event_total": 48,
        "player_name": "칒ystein D",
        "rank": 21,
        "last_rank": 28,
        "rank_sort": 21,
        "total": 300,
        "entry": 5164,
        "entry_name": "Gj칮ken"
      },
      {
        "id": 249301,
        "event_total": 51,
        "player_name": "Arild Norderud",
        "rank": 22,
        "last_rank": 36,
        "rank_sort": 22,
        "total": 299,
        "entry": 42821,
        "entry_name": "KIL United"
      },
      {
        "id": 31523,
        "event_total": 45,
        "player_name": "Guilherme de Melo 游왫릖",
        "rank": 23,
        "last_rank": 19,
        "rank_sort": 23,
        "total": 299,
        "entry": 6876,
        "entry_name": "G칩nadas"
      },
      {
        "id": 259339,
        "event_total": 70,
        "player_name": "Daniel Lysg친rd",
        "rank": 23,
        "last_rank": 98,
        "rank_sort": 24,
        "total": 299,
        "entry": 44193,
        "entry_name": "ShetouchedMatip"
      },
      {
        "id": 204089,
        "event_total": 41,
        "player_name": "Markus Nikolai Delbekk",
        "rank": 25,
        "last_rank": 17,
        "rank_sort": 25,
        "total": 296,
        "entry": 35387,
        "entry_name": "Free Falling"
      },
      {
        "id": 9799,
        "event_total": 43,
        "player_name": "Harald Taarud",
        "rank": 26,
        "last_rank": 24,
        "rank_sort": 26,
        "total": 296,
        "entry": 2210,
        "entry_name": "Roterud B-lag"
      },
      {
        "id": 180026,
        "event_total": 42,
        "player_name": "Arne Skogseth",
        "rank": 27,
        "last_rank": 24,
        "rank_sort": 27,
        "total": 295,
        "entry": 31436,
        "entry_name": "Jerpestadvegen FK"
      },
      {
        "id": 138214,
        "event_total": 33,
        "player_name": "Stein-Tore Mathisen",
        "rank": 27,
        "last_rank": 9,
        "rank_sort": 28,
        "total": 295,
        "entry": 24458,
        "entry_name": "Ryllik Fotball"
      },
      {
        "id": 11482,
        "event_total": 37,
        "player_name": "Petter Sand",
        "rank": 29,
        "last_rank": 16,
        "rank_sort": 29,
        "total": 294,
        "entry": 2586,
        "entry_name": "Norway cup winners"
      },
      {
        "id": 246518,
        "event_total": 43,
        "player_name": "Markus Nyg친rd",
        "rank": 30,
        "last_rank": 31,
        "rank_sort": 30,
        "total": 294,
        "entry": 42378,
        "entry_name": "VARige m칠n"
      },
      {
        "id": 80671,
        "event_total": 56,
        "player_name": "Adriana Sand",
        "rank": 30,
        "last_rank": 70,
        "rank_sort": 31,
        "total": 294,
        "entry": 15258,
        "entry_name": "Team Peanut"
      },
      {
        "id": 3319,
        "event_total": 44,
        "player_name": "Simen Aasum",
        "rank": 32,
        "last_rank": 21,
        "rank_sort": 32,
        "total": 294,
        "entry": 741,
        "entry_name": "Kebabkongen"
      },
      {
        "id": 83699,
        "event_total": 47,
        "player_name": "Emil Haug",
        "rank": 33,
        "last_rank": 40,
        "rank_sort": 33,
        "total": 294,
        "entry": 15833,
        "entry_name": "??????????????"
      },
      {
        "id": 219115,
        "event_total": 48,
        "player_name": "Kristian Duelien Myrvold",
        "rank": 34,
        "last_rank": 43,
        "rank_sort": 34,
        "total": 293,
        "entry": 37867,
        "entry_name": "Nederlaget"
      },
      {
        "id": 92402,
        "event_total": 54,
        "player_name": "Vegard Finbr친ten",
        "rank": 35,
        "last_rank": 62,
        "rank_sort": 35,
        "total": 293,
        "entry": 17331,
        "entry_name": "Poengtoget"
      },
      {
        "id": 2334,
        "event_total": 46,
        "player_name": "Jesper Grundt",
        "rank": 36,
        "last_rank": 38,
        "rank_sort": 36,
        "total": 293,
        "entry": 534,
        "entry_name": "K칝llane"
      },
      {
        "id": 222568,
        "event_total": 49,
        "player_name": "Truls Kirkeberg",
        "rank": 37,
        "last_rank": 49,
        "rank_sort": 37,
        "total": 292,
        "entry": 38485,
        "entry_name": "Whalers76"
      },
      {
        "id": 213341,
        "event_total": 41,
        "player_name": "Per Arne Sollien",
        "rank": 38,
        "last_rank": 34,
        "rank_sort": 38,
        "total": 291,
        "entry": 36890,
        "entry_name": "Hof"
      },
      {
        "id": 26780,
        "event_total": 40,
        "player_name": "Kristian Gylterud",
        "rank": 39,
        "last_rank": 29,
        "rank_sort": 39,
        "total": 291,
        "entry": 5888,
        "entry_name": "ABCDE FC"
      },
      {
        "id": 212223,
        "event_total": 59,
        "player_name": "Lars Erik Fremming",
        "rank": 40,
        "last_rank": 84,
        "rank_sort": 40,
        "total": 291,
        "entry": 36699,
        "entry_name": "Lagnavn FC"
      },
      {
        "id": 111354,
        "event_total": 46,
        "player_name": "Eivind Hus친s",
        "rank": 41,
        "last_rank": 44,
        "rank_sort": 41,
        "total": 291,
        "entry": 20253,
        "entry_name": "Hus친ssk칝vven Utd"
      },
      {
        "id": 22771,
        "event_total": 45,
        "player_name": "Torkel Eng",
        "rank": 42,
        "last_rank": 42,
        "rank_sort": 42,
        "total": 291,
        "entry": 5043,
        "entry_name": "Vinger"
      },
      {
        "id": 92237,
        "event_total": 50,
        "player_name": "Gine Kirkeberg",
        "rank": 43,
        "last_rank": 60,
        "rank_sort": 43,
        "total": 290,
        "entry": 17305,
        "entry_name": "Churchill FC"
      },
      {
        "id": 85662,
        "event_total": 54,
        "player_name": "Kjell Roger Dalby",
        "rank": 43,
        "last_rank": 72,
        "rank_sort": 44,
        "total": 290,
        "entry": 16181,
        "entry_name": "The next Haaland`s"
      },
      {
        "id": 51710,
        "event_total": 40,
        "player_name": "H친kon Reitan",
        "rank": 45,
        "last_rank": 35,
        "rank_sort": 45,
        "total": 289,
        "entry": 10132,
        "entry_name": "BR-meg"
      },
      {
        "id": 129038,
        "event_total": 46,
        "player_name": "Nils Knashaug",
        "rank": 46,
        "last_rank": 52,
        "rank_sort": 46,
        "total": 288,
        "entry": 23054,
        "entry_name": "Knas United"
      },
      {
        "id": 92924,
        "event_total": 37,
        "player_name": "Aleksander Holth",
        "rank": 47,
        "last_rank": 29,
        "rank_sort": 47,
        "total": 288,
        "entry": 17417,
        "entry_name": "Granli IL"
      },
      {
        "id": 154181,
        "event_total": 39,
        "player_name": "Ole Pettersen",
        "rank": 48,
        "last_rank": 23,
        "rank_sort": 48,
        "total": 288,
        "entry": 27084,
        "entry_name": "KilGutta"
      },
      {
        "id": 100688,
        "event_total": 35,
        "player_name": "Jan Johannes Eriksen",
        "rank": 49,
        "last_rank": 27,
        "rank_sort": 49,
        "total": 287,
        "entry": 18639,
        "entry_name": "Jan Eriksen FC"
      },
      {
        "id": 217272,
        "event_total": 58,
        "player_name": "Ole Johan Rustad",
        "rank": 50,
        "last_rank": 100,
        "rank_sort": 50,
        "total": 286,
        "entry": 37544,
        "entry_name": "R.I.L"
      }
    ]
  }
}